SRflip_flop/simulation/qsim/SRflip_flop.msim.vcd
$comment
	File created using the following command:
		vcd file SRflip_flop.msim.vcd -direction
$end
$date
	Wed Dec 09 11:35:22 2020
$end
$version
	ModelSim Version 10.5b
$end
$timescale
	1ps
$end

$scope module SRflip_flop_vlg_vec_tst $end
$var reg 1 ! CP $end
$var reg 1 " R $end
$var reg 1 # S $end
$var wire 1 $ Q $end

$scope module i1 $end
$var wire 1 % gnd $end
$var wire 1 & vcc $end
$var wire 1 ' unknown $end
$var tri1 1 ( devclrn $end
$var tri1 1 ) devpor $end
$var tri1 1 * devoe $end
$var wire 1 + CP~combout $end
$var wire 1 , R~combout $end
$var wire 1 - S~combout $end
$var wire 1 . Q~reg0_regout $end
$upscope $end
$upscope $end
$enddefinitions $end
#0
$dumpvars
0!
0"
0#
0$
0%
1&
x'
1(
1)
1*
0+
0,
0-
0.
$end
#15750
1#
1-
#35750
1"
1,
#45000
0#
0-
#50000
1!
1+
1.
1$
#60750
1#
1-
#65000
0"
0,
#90000
0#
0-
#100000
0!
0+
#100750
1"
1,
#105750
1#
1-
#130000
0"
0,
#135000
0#
0-
#150000
1!
1+
#150750
1#
1-
#165750
1"
1,
#180000
0#
0-
#195000
0"
0,
#195750
1#
1-
#200000
0!
0+
#225000
0#
0-
#230750
1"
1,
#240750
1#
1-
#250000
1!
1+
#260000
0"
0,
#270000
0#
0-
#285750
1#
1-
#295750
1"
1,
#300000
0!
0+
#315000
0#
0-
#325000
0"
0,
#330750
1#
1-
#350000
1!
1+
0.
0$
#360000
0#
0-
#360750
1"
1,
#375750
1#
1-
#390000
0"
0,
#400000
0!
0+
#405000
0#
0-
#420750
1#
1-
#425750
1"
1,
#450000
1!
0#
1+
0-
1.
1$
#455000
0"
0,
#465750
1#
1-
#490750
1"
1,
#495000
0#
0-
#500000
0!
0+
#510750
1#
1-
#520000
0"
0,
#540000
0#
0-
#550000
1!
1+
#555750
1"
1#
1,
1-
#585000
0"
0#
0,
0-
#600000
0!
0+
#600750
1#
1-
#620750
1"
1,
#630000
0#
0-
#645750
1#
1-
#650000
1!
0"
1+
0,
#675000
0#
0-
#685750
1"
1,
#690750
1#
1-
#700000
0!
0+
#715000
0"
0,
#720000
0#
0-
#735750
1#
1-
#750000
1!
1+
0.
0$
#750750
1"
1,
#765000
0#
0-
#780000
0"
0,
#780750
1#
1-
#800000
0!
0+
#810000
0#
0-
#815750
1"
1,
#825750
1#
1-
#845000
0"
0,
#850000
1!
1+
#855000
0#
0-
#870750
1#
1-
#880750
1"
1,
#900000
0!
0#
0+
0-
#910000
0"
0,
#915750
1#
1-
#945000
0#
0-
#945750
1"
1,
#950000
1!
1+
1.
1$
#960750
1#
1-
#975000
0"
0,
#990000
0#
0-
