HC4511/simulation/qsim/HC4511.msim.vcd
$comment
	File created using the following command:
		vcd file HC4511.msim.vcd -direction
$end
$date
	Thu Dec 24 12:37:53 2020
$end
$version
	ModelSim Version 10.5b
$end
$timescale
	1ps
$end

$scope module HC4511_vlg_vec_tst $end
$var reg 1 ! BL $end
$var reg 4 " D [3:0] $end
$var reg 1 # LE $end
$var reg 1 $ LT $end
$var wire 1 % Y [6] $end
$var wire 1 & Y [5] $end
$var wire 1 ' Y [4] $end
$var wire 1 ( Y [3] $end
$var wire 1 ) Y [2] $end
$var wire 1 * Y [1] $end
$var wire 1 + Y [0] $end

$scope module i1 $end
$var wire 1 , gnd $end
$var wire 1 - vcc $end
$var wire 1 . unknown $end
$var tri1 1 / devclrn $end
$var tri1 1 0 devpor $end
$var tri1 1 1 devoe $end
$var wire 1 2 LT~combout $end
$var wire 1 3 BL~combout $end
$var wire 1 4 comb~0_combout $end
$var wire 1 5 LE~combout $end
$var wire 1 6 WideOr6~0_combout $end
$var wire 1 7 Y[0]$latch~0_combout $end
$var wire 1 8 Y[0]$latch~combout $end
$var wire 1 9 WideOr5~0_combout $end
$var wire 1 : Y[1]$latch~0_combout $end
$var wire 1 ; Y[1]$latch~combout $end
$var wire 1 < WideOr4~0_combout $end
$var wire 1 = Y[2]$latch~0_combout $end
$var wire 1 > Y[2]$latch~combout $end
$var wire 1 ? WideOr3~0_combout $end
$var wire 1 @ Y[3]$latch~0_combout $end
$var wire 1 A Y[3]$latch~combout $end
$var wire 1 B WideOr2~0_combout $end
$var wire 1 C Y[4]$latch~0_combout $end
$var wire 1 D Y[4]$latch~combout $end
$var wire 1 E WideOr1~0_combout $end
$var wire 1 F Y[5]$latch~0_combout $end
$var wire 1 G Y[5]$latch~combout $end
$var wire 1 H WideOr0~0_combout $end
$var wire 1 I Y[6]$latch~0_combout $end
$var wire 1 J Y[6]$latch~combout $end
$var wire 1 K D~combout [3] $end
$var wire 1 L D~combout [2] $end
$var wire 1 M D~combout [1] $end
$var wire 1 N D~combout [0] $end
$upscope $end
$upscope $end
$enddefinitions $end
#0
$dumpvars
1!
b0 "
0#
1$
0+
1*
1)
1(
1'
1&
1%
0,
1-
x.
1/
10
11
12
13
04
05
06
07
08
09
1:
1;
0<
1=
1>
0?
1@
1A
0B
1C
1D
0E
1F
1G
0H
1I
1J
0N
0M
0L
0K
$end
#11250
b1 "
1N
1H
1?
1<
19
0I
0@
0=
0:
0J
0A
0>
0;
0%
0(
0)
0*
#25000
b1001 "
1K
0H
0?
09
16
1I
1@
1:
17
1J
1A
1;
18
1%
1(
1*
1+
#37500
b1101 "
1L
1H
1E
1B
1?
19
06
0I
0F
0C
0@
0:
07
0J
0G
0D
0A
0;
08
0%
0&
0'
0(
0*
0+
#45000
b1100 "
0N
#50000
b100 "
0K
0E
0B
09
16
1F
1C
1:
17
1G
1D
1;
18
1&
1'
1*
1+
#56250
b101 "
1N
0H
1E
0?
1I
0F
1@
1J
0G
1A
1%
0&
1(
#75000
b1 "
b1001 "
0L
1K
0E
1F
1G
1&
#90000
b1000 "
0N
0<
1=
1>
1)
#93750
b1010 "
1M
1H
1E
1B
1?
1<
19
06
0I
0F
0C
0@
0=
0:
07
0J
0G
0D
0A
0>
0;
08
0%
0&
0'
0(
0)
0*
0+
#100000
b10 "
0K
0H
0E
0?
0<
16
1I
1F
1@
1=
17
1J
1G
1A
1>
18
1%
1&
1(
1)
1+
#101250
b11 "
1N
0B
1<
1C
0=
1D
0>
1'
0)
#112500
b111 "
1L
1?
06
0@
07
0A
08
0(
0+
#120000
0!
03
14
0J
0G
0D
0%
0&
0'
#125000
b101 "
b1101 "
0M
1K
1H
1E
1B
0I
0F
0C
#135000
b1100 "
0N
#146250
b1101 "
1N
#150000
b1001 "
1!
b1 "
0L
0K
13
0E
0B
04
1F
1C
1G
1D
1&
1'
#175000
b1001 "
1K
0H
0?
09
16
1I
1@
1:
17
1J
1A
1;
18
1%
1(
1*
1+
#180000
b1000 "
0N
0<
1=
1>
1)
#187500
b1100 "
1L
1H
1E
1B
1?
1<
19
06
0I
0F
0C
0@
0=
0:
07
0J
0G
0D
0A
0>
0;
08
0%
0&
0'
0(
0)
0*
0+
#190000
0$
02
1J
1G
1D
1A
1>
1;
18
1%
1&
1'
1(
1)
1*
1+
#191250
b1101 "
1N
#200000
b101 "
0K
0H
0B
0?
09
16
1I
1C
1@
1:
17
#218750
b111 "
1M
0E
1?
19
06
1F
0@
0:
07
#220000
1$
12
0A
0>
0;
08
0(
0)
0*
0+
#225000
b11 "
b10 "
b1010 "
0N
0L
1K
1H
1E
1B
0I
0F
0C
0J
0G
0D
0%
0&
0'
#236250
b1011 "
1N
#250000
1#
b1001 "
b1 "
15
0M
0K
0E
0B
#262500
b101 "
1L
0H
1E
0?
09
16
#270000
b100 "
0N
1H
0E
1?
#275000
b1100 "
1K
1E
1B
19
06
#281250
b1101 "
1N
#300000
b1001 "
b1 "
0L
0K
0E
0B
#310000
0#
05
1F
1C
1G
1D
1&
1'
#315000
b0 "
0N
0H
0?
0<
09
1I
1@
1=
1:
1J
1A
1>
1;
1%
1(
1)
1*
#325000
b1000 "
1K
16
17
18
1+
#326250
b1001 "
1N
1<
0=
0>
0)
#337500
b1101 "
1L
1H
1E
1B
1?
19
06
0I
0F
0C
0@
0:
07
0J
0G
0D
0A
0;
08
0%
0&
0'
0(
0*
0+
#343750
b1111 "
1M
#350000
b111 "
0K
0H
0E
0B
1I
1F
1C
1J
1G
1D
1%
1&
1'
#360000
b110 "
0N
1H
1E
0?
0<
09
16
0I
0F
1@
1=
1:
17
0J
0G
1A
1>
1;
18
0%
0&
1(
1)
1*
1+
#371250
b111 "
1N
0H
0E
1?
1<
19
06
1I
1F
0@
0=
0:
07
1J
1G
0A
0>
0;
08
1%
1&
0(
0)
0*
0+
#375000
b11 "
b1 "
b1001 "
0M
0L
1K
0?
09
16
1@
1:
17
1A
1;
18
1(
1*
1+
#400000
b1 "
0K
1H
1?
19
06
0I
0@
0:
07
0J
0A
0;
08
0%
0(
0*
0+
#405000
b0 "
0N
0H
0?
0<
09
1I
1@
1=
1:
1J
1A
1>
1;
1%
1(
1)
1*
#412500
b100 "
1L
1H
1?
1<
16
0I
0@
0=
17
0J
0A
0>
18
0%
0(
0)
1+
#416250
b101 "
1N
0H
1E
0?
1I
0F
1@
1J
0G
1A
1%
0&
1(
#425000
b1101 "
1K
1H
1B
1?
19
06
0I
0C
0@
0:
07
0J
0D
0A
0;
08
0%
0'
0(
0*
0+
#450000
b1001 "
b1000 "
b0 "
0N
0L
0K
0H
0E
0B
0?
0<
09
1I
1F
1C
1@
1=
1:
1J
1G
1D
1A
1>
1;
1%
1&
1'
1(
1)
1*
#461250
b1 "
1N
1H
1?
1<
19
0I
0@
0=
0:
0J
0A
0>
0;
0%
0(
0)
0*
#468750
b11 "
1M
0H
0?
16
1I
1@
17
1J
1A
18
1%
1(
1+
#475000
b1011 "
1K
1H
1E
1B
1?
06
0I
0F
0C
0@
07
0J
0G
0D
0A
08
0%
0&
0'
0(
0+
#487500
b1111 "
1L
#495000
b1110 "
0N
#500000
b1100 "
b100 "
0M
0K
0E
0B
09
16
1F
1C
1:
17
1G
1D
1;
18
1&
1'
1*
1+
#506250
b101 "
1N
0H
1E
0?
1I
0F
1@
1J
0G
1A
1%
0&
1(
#525000
b1 "
b1001 "
0L
1K
0E
1F
1G
1&
#540000
b1000 "
0N
0<
1=
1>
1)
#550000
b0 "
0K
06
07
08
0+
#551250
b1 "
1N
1H
1?
1<
19
0I
0@
0=
0:
0J
0A
0>
0;
0%
0(
0)
0*
#562500
b101 "
1L
0H
1E
0?
09
16
1I
0F
1@
1:
17
1J
0G
1A
1;
18
1%
0&
1(
1*
1+
#575000
b1101 "
1K
1H
1B
1?
19
06
0I
0C
0@
0:
07
0J
0D
0A
0;
08
0%
0'
0(
0*
0+
#585000
b1100 "
0N
#593750
b1110 "
1M
#596250
b1111 "
1N
#600000
b1011 "
b11 "
0L
0K
0H
0E
0B
0?
16
1I
1F
1C
1@
17
1J
1G
1D
1A
18
1%
1&
1'
1(
1+
#625000
b1 "
b1001 "
0M
1K
09
1:
1;
1*
#630000
b1000 "
0N
0<
1=
1>
1)
#637500
b1100 "
1L
1H
1E
1B
1?
1<
19
06
0I
0F
0C
0@
0=
0:
07
0J
0G
0D
0A
0>
0;
08
0%
0&
0'
0(
0)
0*
0+
#641250
b1101 "
1N
#650000
b101 "
0K
0H
0B
0?
09
16
1I
1C
1@
1:
17
1J
1D
1A
1;
18
1%
1'
1(
1*
1+
#675000
b1 "
b0 "
b1000 "
0N
0L
1K
0E
0<
1F
1=
1G
1>
1&
1)
#686250
b1001 "
1N
1<
0=
0>
0)
#700000
b1 "
0K
1H
1?
19
06
0I
0@
0:
07
0J
0A
0;
08
0%
0(
0*
0+
#712500
b101 "
1L
0H
1E
0?
09
16
1I
0F
1@
1:
17
1J
0G
1A
1;
18
1%
0&
1(
1*
1+
#718750
b111 "
1M
0E
1?
19
06
1F
0@
0:
07
1G
0A
0;
08
1&
0(
0*
0+
#720000
b110 "
0N
1H
1E
0?
0<
09
16
0I
0F
1@
1=
1:
17
0J
0G
1A
1>
1;
18
0%
0&
1(
1)
1*
1+
#725000
b1110 "
1K
1B
1?
1<
19
06
0C
0@
0=
0:
07
0D
0A
0>
0;
08
0'
0(
0)
0*
0+
#731250
b1111 "
1N
#750000
b1011 "
b1001 "
b1 "
0M
0L
0K
0E
0B
1F
1C
1G
1D
1&
1'
#765000
b0 "
0N
0H
0?
0<
09
1I
1@
1=
1:
1J
1A
1>
1;
1%
1(
1)
1*
#775000
b1000 "
1K
16
17
18
1+
#776250
b1001 "
1N
1<
0=
0>
0)
#787500
b1101 "
1L
1H
1E
1B
1?
19
06
0I
0F
0C
0@
0:
07
0J
0G
0D
0A
0;
08
0%
0&
0'
0(
0*
0+
#800000
b101 "
0K
0H
0B
0?
09
16
1I
1C
1@
1:
17
1J
1D
1A
1;
18
1%
1'
1(
1*
1+
#810000
b100 "
0N
1H
0E
1?
0I
1F
0@
0J
1G
0A
0%
1&
0(
#821250
b101 "
1N
0H
1E
0?
1I
0F
1@
1J
0G
1A
1%
0&
1(
#825000
b1 "
b1001 "
0L
1K
0E
1F
1G
1&
#843750
b1011 "
1M
1H
1E
1B
1?
19
06
0I
0F
0C
0@
0:
07
0J
0G
0D
0A
0;
08
0%
0&
0'
0(
0*
0+
#850000
b11 "
0K
0H
0E
0B
0?
16
1I
1F
1C
1@
17
1J
1G
1D
1A
18
1%
1&
1'
1(
1+
#855000
b10 "
0N
1B
0<
0C
1=
0D
1>
0'
1)
#862500
b110 "
1L
1H
1E
0B
09
0I
0F
1C
1:
0J
0G
1D
1;
0%
0&
1'
1*
#866250
b111 "
1N
0H
0E
1?
1<
19
06
1I
1F
0@
0=
0:
07
1J
1G
0A
0>
0;
08
1%
1&
0(
0)
0*
0+
#875000
b101 "
b1101 "
0M
1K
1H
1E
1B
0I
0F
0C
0J
0G
0D
0%
0&
0'
#900000
b1001 "
b1000 "
b0 "
0N
0L
0K
0H
0E
0B
0?
0<
09
1I
1F
1C
1@
1=
1:
1J
1G
1D
1A
1>
1;
1%
1&
1'
1(
1)
1*
#911250
b1 "
1N
1H
1?
1<
19
0I
0@
0=
0:
0J
0A
0>
0;
0%
0(
0)
0*
#925000
b1001 "
1K
0H
0?
09
16
1I
1@
1:
17
1J
1A
1;
18
1%
1(
1*
1+
#937500
b1101 "
1L
1H
1E
1B
1?
19
06
0I
0F
0C
0@
0:
07
0J
0G
0D
0A
0;
08
0%
0&
0'
0(
0*
0+
#945000
b1100 "
0N
#950000
b100 "
0K
0E
0B
09
16
1F
1C
1:
17
1G
1D
1;
18
1&
1'
1*
1+
#956250
b101 "
1N
0H
1E
0?
1I
0F
1@
1J
0G
1A
1%
0&
1(
#968750
b111 "
1M
0E
1?
19
06
1F
0@
0:
07
1G
0A
0;
08
1&
0(
0*
0+
#975000
b11 "
b1011 "
0L
1K
1H
1E
1B
0I
0F
0C
0J
0G
0D
0%
0&
0'
#990000
b1010 "
0N
