decrease_counter/simulation/qsim/decrease_counter.msim.vcd
$comment
	File created using the following command:
		vcd file decrease_counter.msim.vcd -direction
$end
$date
	Fri Dec 11 08:46:09 2020
$end
$version
	ModelSim Version 10.5b
$end
$timescale
	1ps
$end

$scope module decrease_counter_vlg_vec_tst $end
$var reg 1 ! CEP $end
$var reg 1 " CET $end
$var reg 1 # CP $end
$var reg 1 $ CR $end
$var reg 4 % D [3:0] $end
$var reg 1 & PE $end
$var wire 1 ' Q [3] $end
$var wire 1 ( Q [2] $end
$var wire 1 ) Q [1] $end
$var wire 1 * Q [0] $end
$var wire 1 + TC $end

$scope module i1 $end
$var wire 1 , gnd $end
$var wire 1 - vcc $end
$var wire 1 . unknown $end
$var tri1 1 / devclrn $end
$var tri1 1 0 devpor $end
$var tri1 1 1 devoe $end
$var wire 1 2 CP~combout $end
$var wire 1 3 PE~combout $end
$var wire 1 4 CR~combout $end
$var wire 1 5 CEP~combout $end
$var wire 1 6 CET~combout $end
$var wire 1 7 Q[0]~1_combout $end
$var wire 1 8 Q[0]~reg0_regout $end
$var wire 1 9 Q[1]~reg0_regout $end
$var wire 1 : Add0~0_combout $end
$var wire 1 ; Q[2]~reg0_regout $end
$var wire 1 < Add0~1_combout $end
$var wire 1 = Q[3]~reg0_regout $end
$var wire 1 > TC~0_combout $end
$var wire 1 ? TC~1_combout $end
$var wire 1 @ D~combout [3] $end
$var wire 1 A D~combout [2] $end
$var wire 1 B D~combout [1] $end
$var wire 1 C D~combout [0] $end
$upscope $end
$upscope $end
$enddefinitions $end
#0
$dumpvars
0!
0"
0#
1$
b0 %
1&
0*
0)
0(
0'
0+
0,
1-
x.
1/
10
11
02
13
14
05
06
07
08
09
0:
0;
0<
0=
0>
0?
0C
0B
0A
0@
$end
#12500
1#
12
#20000
b1000 %
b1100 %
1A
1@
#25000
0#
02
#37500
1#
12
#50000
0#
02
#62500
1#
12
#75000
0#
02
#87500
1#
12
#100000
0#
02
#112500
1#
12
#120000
0$
04
#125000
0#
02
#137500
1#
12
#140000
0&
1$
03
14
17
#150000
0#
02
#162500
1#
12
1=
1;
1<
1'
1(
#170000
1!
1"
15
16
#175000
0#
02
#180000
b100 %
b0 %
1&
0A
0@
13
#187500
1#
12
0;
19
18
1:
0(
1)
1*
#200000
0#
02
#212500
1#
12
08
0*
#225000
0#
02
#237500
1#
12
09
18
0)
1*
#250000
0#
02
#262500
1#
12
08
0<
0:
0*
#275000
0#
02
#287500
1#
12
0=
1;
19
18
1<
1:
0'
1(
1)
1*
#300000
0#
02
#312500
1#
12
08
0*
#325000
0#
02
#337500
1#
12
09
18
0)
1*
#350000
0#
02
#362500
1#
12
08
0:
0*
#375000
0#
02
#387500
1#
12
0;
19
18
1:
0(
1)
1*
#400000
0#
02
#412500
1#
12
08
0*
#425000
0#
02
#437500
1#
12
09
18
0)
1*
#450000
0#
02
#462500
1#
12
08
0<
0:
0*
#475000
0#
02
#487500
1#
12
1=
1;
19
18
1>
1<
1:
1'
1(
1)
1*
1?
1+
#500000
0#
02
#512500
1#
12
08
0>
0*
0?
0+
#525000
0#
02
#537500
1#
12
09
18
0)
1*
#550000
0#
02
#562500
1#
12
08
0:
0*
#570000
0!
05
07
#575000
0#
02
#587500
1#
12
#600000
0#
02
#612500
1#
12
#625000
0#
02
#637500
1#
12
#650000
0#
02
#662500
1#
12
#675000
0#
02
#687500
1#
12
#700000
0#
02
#712500
1#
12
#725000
0#
02
#737500
1#
12
#750000
0#
02
#762500
1#
12
#775000
0#
02
#780000
0"
1!
06
15
#787500
1#
12
#800000
0#
02
#812500
1#
12
#825000
0#
02
#837500
1#
12
#850000
0#
02
#862500
1#
12
#875000
0#
02
#887500
1#
12
#900000
0#
02
#912500
1#
12
#925000
0#
02
#937500
1#
12
#950000
0#
02
#962500
1#
12
#975000
0#
02
#987500
1#
12
