MC14528/simulation/qsim/MC14528.msim.vcd
$comment
	File created using the following command:
		vcd file MC14528.msim.vcd -direction
$end
$date
	Tue Dec 22 16:19:01 2020
$end
$version
	ModelSim Version 10.5b
$end
$timescale
	1ps
$end

$scope module MC14528_vlg_vec_tst $end
$var reg 1 ! RD $end
$var reg 1 " TRN $end
$var reg 1 # TRP $end
$var wire 1 $ Q $end
$var wire 1 % Qnot $end

$scope module i1 $end
$var wire 1 & gnd $end
$var wire 1 ' vcc $end
$var wire 1 ( unknown $end
$var tri1 1 ) devclrn $end
$var tri1 1 * devpor $end
$var tri1 1 + devoe $end
$upscope $end
$upscope $end
$enddefinitions $end
#0
$dumpvars
1!
0"
1#
0$
1%
0&
1'
x(
1)
1*
1+
$end
#110000
0!
#140000
1"
#170000
1!
#250000
0#
#270000
1#
#380000
0"
#430000
0#
#500000
1"
#520000
0!
#530000
1!
#600000
1#
#620000
0"
#650000
0#
#790000
1"
