HC151/simulation/qsim/HC151.msim.vcd
$comment
	File created using the following command:
		vcd file HC151.msim.vcd -direction
$end
$date
	Wed Dec 30 22:41:56 2020
$end
$version
	ModelSim Version 10.5b
$end
$timescale
	1ps
$end

$scope module HC151_vlg_vec_tst $end
$var reg 8 ! D [7:0] $end
$var reg 1 " E $end
$var reg 3 # S [2:0] $end
$var wire 1 $ Y $end

$scope module i1 $end
$var wire 1 % gnd $end
$var wire 1 & vcc $end
$var wire 1 ' unknown $end
$var tri1 1 ( devclrn $end
$var tri1 1 ) devpor $end
$var tri1 1 * devoe $end
$var wire 1 + Mux0~0_combout $end
$var wire 1 , Mux0~1_combout $end
$var wire 1 - Mux0~2_combout $end
$var wire 1 . Mux0~3_combout $end
$var wire 1 / E~combout $end
$var wire 1 0 Mux0~4_combout $end
$var wire 1 1 D~combout [7] $end
$var wire 1 2 D~combout [6] $end
$var wire 1 3 D~combout [5] $end
$var wire 1 4 D~combout [4] $end
$var wire 1 5 D~combout [3] $end
$var wire 1 6 D~combout [2] $end
$var wire 1 7 D~combout [1] $end
$var wire 1 8 D~combout [0] $end
$var wire 1 9 S~combout [2] $end
$var wire 1 : S~combout [1] $end
$var wire 1 ; S~combout [0] $end
$upscope $end
$upscope $end
$enddefinitions $end
#0
$dumpvars
b10010110 !
0"
b11 #
0$
0%
1&
x'
1(
1)
1*
1+
1,
1-
0.
0/
00
08
17
16
05
14
03
02
11
1;
1:
09
$end
#5000
b11010110 !
b11110110 !
b11110111 !
1"
b111 #
1/
19
18
13
12
#10000
b1110111 !
b1100111 !
b1100011 !
b1100001 !
b101 #
b1000001 !
0:
07
06
04
03
01
1.
0-
0+
0,
0.
#15000
b1001001 !
b100 #
b1001 !
b10001001 !
b110 #
0;
1:
15
02
11
#20000
0"
b10011001 !
b10011011 !
b10111011 !
b10110011 !
b111 #
b11110011 !
0/
1;
17
05
14
13
12
1-
1,
1+
10
1$
#25000
b11110010 !
b11 #
b11110110 !
b11100110 !
b11100100 !
b10100100 !
09
08
07
16
04
02
00
0$
#30000
b100100 !
1"
b10 #
b110 #
b110100 !
b110110 !
1/
0;
19
17
14
01
0-
0+
1.
0,
#35000
b10110 !
b10111 !
b10011 !
b1010011 !
b111 #
b11 #
1;
09
18
06
03
12
1-
1+
0.
#40000
b1 #
b1011011 !
b1001011 !
b1101011 !
b1101111 !
b101111 !
b0 #
16
15
04
13
02
0;
0:
1.
0+
1,
0,
#45000
b10101111 !
0"
b10101101 !
b10 #
b10100101 !
b10000101 !
0/
1:
07
05
03
11
10
0.
0-
00
1.
1$
10
0$
1$
#50000
b10000100 !
b10010100 !
b11010100 !
b11 #
b1010100 !
1"
b1010110 !
1;
08
17
14
12
01
1/
1-
1+
00
0.
0$
#55000
b111 #
b101 #
b1011110 !
b11110 !
b10011110 !
15
02
11
0:
19
1.
0+
1,
0,
#60000
b10011010 !
b10111010 !
b10111011 !
b10101011 !
b100 #
0"
b0 #
b10100011 !
b11100011 !
0;
09
18
06
05
04
13
12
0/
10
1$
#65000
b11100001 !
b1100001 !
b1100000 !
b100 #
19
08
07
01
00
0-
0.
0$
#70000
b110 #
b1000000 !
b1010000 !
b1010010 !
b11010010 !
b11010011 !
18
17
14
03
11
1:
1+
1,
10
1$
#75000
b111 #
1"
b11011011 !
b11011001 !
b1011001 !
b1011000 !
1/
08
07
15
01
1;
00
1-
0,
1.
0$
#80000
b1011100 !
b11 #
b1 #
b1001100 !
b0 #
0"
b1000100 !
b1000110 !
b11000110 !
0;
0:
09
17
16
05
04
11
0/
0-
1,
0+
10
0.
0,
1$
00
0$
#85000
b11100110 !
b11100111 !
b11100011 !
b100 #
1"
19
18
06
13
1/
1-
1.
#90000
b110 #
b11101011 !
b11101001 !
b1101001 !
b10 #
0"
07
15
01
1:
09
0/
0-
1+
10
0.
1,
1$
00
0$
#95000
b1111001 !
b11 #
b1011001 !
b1011000 !
b1010000 !
b1010010 !
1"
1;
08
17
05
14
03
1/
1-
0,
#100000
b10010 !
b1 #
b11010 !
0"
0:
15
02
0/
1.
0+
10
1$
#105000
b11110 !
b101 #
b1110 !
b1100 !
b1001100 !
19
07
16
04
12
00
0-
0.
0$
#110000
b11001100 !
b11101100 !
b11101101 !
b1 #
09
18
13
11
1,
#115000
b0 #
b11101001 !
b11111001 !
b11111011 !
b11011011 !
b11011010 !
b100 #
08
17
06
14
03
0;
19
1+
0,
10
1,
00
1$
10
0$
1$
#120000
b110 #
b11010010 !
b10010010 !
b111 #
b10010110 !
b10000110 !
b10000111 !
b11 #
18
16
05
04
02
1;
1:
09
1-
1.
00
0.
10
0$
00
1$
0$
#125000
1"
b111 !
b1 #
b1111 !
b0 #
b1011 !
b1010 !
b100 #
1/
0;
0:
19
08
06
15
01
0-
0+
1.
0.
0,
#130000
b101010 !
b1101010 !
b1100010 !
b101 #
b1100011 !
1;
18
05
13
12
1-
1,
1.
#135000
b1100001 !
0"
b1100101 !
b1 #
b1000101 !
b1001101 !
b0 #
0/
0;
09
07
16
15
03
10
0,
1$
#140000
b1101 !
b1111 !
1"
b1011 !
b100 #
b101011 !
b101 #
1/
1;
19
17
06
13
02
00
1,
0$
#145000
b111011 !
b10111011 !
b111 #
b11111011 !
b11 #
b11011011 !
1:
09
14
03
12
11
1+
0,
1,
#150000
0"
b11011111 !
b1 #
b10011111 !
b101 #
b10111111 !
0/
0:
19
16
13
02
10
0+
1$
#155000
b10111110 !
b10110110 !
b10110100 !
b11110100 !
b1 #
09
08
07
05
12
0-
0.
00
0$
#160000
b1110100 !
b1110000 !
b1010000 !
b1010001 !
b1011001 !
b1011011 !
b11011 !
18
17
06
15
03
02
01
1-
0,
1.
10
1$
#165000
b0 #
b1011 !
b100 #
b1010 !
b1000 !
08
07
04
0;
19
0-
00
0.
0$
#170000
1"
b1100 !
b101100 !
b100100 !
b1100100 !
b101 #
b1 #
1/
1;
09
16
05
13
12
1,
#175000
b11 #
b11100100 !
b11110100 !
b11110110 !
b11110010 !
b10110010 !
17
06
14
02
11
1:
1-
1+
#180000
0"
b10010010 !
b111 #
b101 #
b10010 !
b10 !
b1000010 !
0/
0:
19
04
03
12
01
10
1.
0+
0,
00
1$
0$
#185000
b1000110 !
b1010110 !
b10110 !
16
14
02
#190000
b1 #
b11 #
b110 !
b1000110 !
04
12
1:
09
1+
0.
10
00
1$
0$
#195000
b1001110 !
b1001100 !
1"
b1101100 !
07
15
13
1/
1.
#200000
b11101100 !
b11101000 !
b1 #
b11111000 !
b11111010 !
0:
17
06
14
11
0+
1,
#205000
b101 #
b11011010 !
b11001010 !
04
03
19
0,
#210000
b11001011 !
b10001011 !
b1011 !
b1111 !
b111 #
b1101 !
b11 #
b101101 !
1:
09
18
07
16
13
02
01
1+
1,
0,
#215000
b1101101 !
b11101101 !
b11101001 !
b1 #
b11101011 !
b101 #
0:
19
17
06
12
11
0+
1,
#220000
b100 #
0"
b10101011 !
b0 #
0/
02
0;
09
10
0,
1$
#225000
b10111011 !
b10111001 !
1"
b100 #
1/
19
07
14
00
1+
1,
0$
#230000
b10111000 !
b10011000 !
b10011100 !
b101 #
b10011110 !
1;
08
17
16
03
0+
0,
#235000
b10010110 !
b11010110 !
0"
b11110110 !
b100 #
b11110100 !
0/
0;
07
05
13
12
0-
1+
0.
1,
10
1$
#240000
b110 #
b11100100 !
b10 #
b11100000 !
b10100000 !
1"
b10000000 !
b11 #
b10000010 !
17
06
04
03
02
1;
1:
09
1/
1-
00
0$
#245000
b10 !
b11 !
b1011 !
b11011 !
b1011011 !
0"
18
15
14
12
01
0/
1.
0,
10
1$
#250000
b1 #
b101 #
b1011111 !
b11011111 !
16
11
0:
19
1,
0+
00
10
0,
0$
00
1$
0$
#255000
b11111111 !
b100 #
b11111110 !
b11101110 !
b11101010 !
0;
08
06
04
13
0-
0.
#260000
b1101010 !
b1001010 !
b101 #
b1001110 !
1;
16
03
01
1-
1.
#265000
b1001100 !
b1000100 !
b100 !
1"
b101 !
b100 #
b1 !
1/
0;
18
07
06
05
02
#270000
b0 #
b10001 !
b10011 !
b1010011 !
0"
b1010010 !
08
17
14
12
09
0/
0-
1+
10
0.
1,
1$
00
0$
#275000
b11010010 !
b1 #
b11010110 !
b101 #
b11010100 !
b10010100 !
1"
1;
19
07
16
02
11
1/
0+
0,
#280000
b10110100 !
b10111100 !
b10101100 !
b10101101 !
b10101001 !
b1 #
b11101001 !
09
18
06
15
04
13
12
1,
#285000
b11101011 !
b11001011 !
b11011011 !
b11011010 !
08
17
14
03
1-
0,
1.
#290000
b11 #
0"
b11010010 !
b10010010 !
b10000010 !
0/
05
04
02
1:
10
0.
1+
00
1,
1$
0$
#295000
b10 !
b110 !
b111 !
b1 #
b1111 !
b1001111 !
0:
18
16
15
12
01
1.
0+
0,
10
1$
#300000
b1001101 !
b1101101 !
b1111101 !
b11111101 !
b11111100 !
b11 #
b11110100 !
b10110100 !
1:
08
07
05
14
13
02
11
0.
1+
1,
00
0$
#305000
b111 #
b10110000 !
b10010000 !
b10010001 !
b101 #
b11010001 !
18
06
03
12
0:
19
0-
1.
0+
10
0.
0,
1$
00
0$
#310000
1"
b11010011 !
b11000011 !
b1000011 !
b1000010 !
1/
08
17
04
01
1-
1.
#315000
b1001010 !
b1001110 !
b1110 !
b1100 !
b11100 !
b10011100 !
07
16
15
14
02
11
0-
0.
#320000
b100 #
b0 #
b10 #
b10010100 !
b10000100 !
b100 !
05
04
01
0;
1:
09
1.
#325000
0"
b0 !
b1000000 !
b1000010 !
b110 #
b1010010 !
b11010010 !
0/
19
17
06
14
12
11
0.
1+
1,
10
1$
#330000
b11110010 !
b111 #
b11110110 !
b10110110 !
b10100110 !
1;
16
04
13
02
1-
1.
0.
#335000
b10100111 !
1"
b10100101 !
b110 #
b10100001 !
1/
0;
18
07
06
00
0-
0+
0,
0$
#340000
b10101001 !
b10 #
b101001 !
b1001 !
b11001 !
b11000 !
b11 #
b11100 !
1;
09
08
16
15
14
03
01
1-
1+
1.
#345000
b1 #
b1011100 !
b1010100 !
b11010100 !
b11110100 !
b11110000 !
06
05
13
12
11
0:
1,
0+
0-
0.
#350000
0"
b101 #
b11110001 !
b11111001 !
b1111001 !
0/
18
15
01
19
10
1$
#355000
b111 #
b111001 !
b11001 !
b11 #
b10011001 !
03
02
11
1:
09
0,
1+
1-
00
1,
1.
0$
10
1$
#360000
b10011011 !
b10 #
1"
b10011010 !
b0 #
b10111010 !
b100 #
b111010 !
0;
0:
19
08
17
13
01
1/
0-
00
0.
0$
#365000
b101010 !
b101110 !
b1101110 !
b101 #
b111 #
b11 #
1;
1:
09
16
04
12
1-
0,
1.
#370000
b1111110 !
b1111010 !
b1 #
0:
06
14
0+
1,
#375000
b1110010 !
b1110011 !
b1010011 !
b11010011 !
b10010011 !
b0 #
b100 #
b10010111 !
0;
19
18
16
05
03
02
11
0,
1+
1,
#380000
b10010101 !
0"
b10011101 !
b10111101 !
b111101 !
b1111101 !
b0 #
b1111001 !
0/
09
07
06
15
13
12
01
10
1$
#385000
b10 #
b11 #
1"
b1011001 !
b11001 !
b11101 !
1/
16
03
02
1;
1:
00
0,
0$
#390000
b1101 !
b10001101 !
b10 #
b10101101 !
b11101101 !
b11101001 !
0;
06
04
13
12
11
0-
1,
0.
#395000
b11101000 !
b110 #
b100 #
0"
b1101000 !
b101000 !
0:
19
08
02
01
0/
0+
10
0,
1$
00
0$
#400000
b101 #
b101001 !
b111 #
18
1;
1:
1-
1,
1+
1.
10
0,
00
1$
0$
#405000
b100001 !
b1 !
b101 !
b11 #
1"
b1000101 !
b10 #
0;
09
16
05
03
12
1/
0-
1,
0.
1.
#410000
b1010101 !
b1010100 !
b0 #
b1010000 !
0"
b1 #
1;
0:
08
06
14
0/
0,
0+
0.
10
00
1$
0$
#415000
b1010010 !
b1011010 !
b11010 !
b1010 !
b1011 !
18
17
15
04
02
1-
1.
10
1$
#420000
b10001011 !
b10101011 !
b10101111 !
1"
b0 #
b10100111 !
b11100111 !
1/
0;
16
05
13
12
11
00
0$
#425000
b10 #
b11100101 !
b11100100 !
b1100100 !
b1000100 !
b11 #
b1001100 !
08
07
15
03
01
1;
1:
1+
#430000
b1011100 !
0"
b11100 !
b10011100 !
b10111100 !
14
13
02
11
0/
1,
10
1$
#435000
b10111110 !
b10111111 !
b10 #
b10101111 !
1"
b11101111 !
0;
18
17
04
12
1/
0-
00
0$
#440000
b11101011 !
b11101001 !
b11 #
1;
07
06
1-
0.
1.
#445000
b1101001 !
b1101000 !
b1111000 !
0"
b111000 !
08
14
02
01
0/
0,
10
1$
#450000
b111 #
b111100 !
b111110 !
b110 #
b10111110 !
b10101110 !
1"
17
16
04
11
0;
19
1/
0-
0+
1,
00
0,
0$
#455000
b100 #
b11101110 !
b0 #
b1 #
b1101110 !
12
01
1;
0:
09
1,
1-
0.
1.
#460000
b1100110 !
b1110110 !
b110110 !
b101 #
b10110110 !
19
05
14
02
11
#465000
b10110111 !
b10110011 !
b100 #
b0 #
b110011 !
0;
09
18
06
01
0,
1+
1,
#470000
b10011 !
0"
b11011 !
b11111 !
b1 #
b101 #
b10011111 !
0/
1;
19
16
15
03
11
10
0+
0,
1$
00
0$
#475000
b10001111 !
b11001111 !
b11001110 !
b11101110 !
b11100110 !
b11100010 !
b100 #
b1100010 !
0;
08
06
05
04
13
12
01
0-
0.
#480000
b110 #
1"
b1100011 !
b1000011 !
b1001011 !
b111 #
b11001011 !
1/
18
15
03
11
1;
1:
1-
1+
1.
1,
#485000
b11 #
b10001011 !
b10001111 !
0"
b10101111 !
b10100111 !
b10 #
16
05
13
02
0;
09
0/
0.
0+
0-
10
00
0,
1.
1$
10
0$
1$
#490000
b10100101 !
b10110101 !
b10110100 !
b11110100 !
b11110000 !
b11111000 !
b11 #
1;
08
07
06
15
14
12
1-
1,
1+
0.
1.
00
10
0$
1$
#495000
b1 #
b1111000 !
1"
b1011000 !
b1001000 !
b0 #
04
03
01
0;
0:
1/
0+
0-
00
0,
0.
0$
#500000
b1001010 !
b1001110 !
b10 #
b11 #
1;
1:
17
16
1-
1+
1.
#505000
0"
b1011110 !
b1011100 !
b1011000 !
b10 #
0/
0;
07
06
14
10
0-
1,
0.
1$
00
0$
#510000
b110 #
b11011000 !
b100 #
1"
b11001000 !
b11001010 !
17
04
11
0:
19
1/
0+
0,
#515000
b11001011 !
b10001011 !
b10001111 !
b101 #
b1111 !
b111 #
0"
1;
1:
18
16
02
01
0/
1-
1+
1.
#520000
b11 #
b11111 !
b1011111 !
b1011011 !
b10 #
1"
06
14
12
0;
09
1/
0-
1,
0.
#525000
b1010011 !
b1010001 !
b0 #
b1 #
0"
1;
0:
07
05
0/
0,
0+
#530000
b1010000 !
b11010000 !
b11010100 !
b11011100 !
b11011110 !
b0 #
0;
08
17
16
15
11
1+
1,
#535000
b11111110 !
b11101110 !
b10101110 !
1"
b10100110 !
b10100100 !
b1 #
1/
1;
07
05
04
13
02
0+
#540000
b100100 !
b110100 !
b1110100 !
0"
b1110110 !
b0 #
0/
0;
17
14
12
01
0,
1+
1,
#545000
b100 #
b110 #
b1110111 !
b1110011 !
b1111011 !
1"
18
06
15
1:
19
1/
#550000
b1011011 !
b11011011 !
b11001011 !
b111 #
b101 #
b11001010 !
b11001110 !
0"
1;
0:
08
16
04
03
11
0/
1-
0+
10
1.
0,
1$
00
0$
#555000
b10001110 !
b10001100 !
b10011100 !
b100 #
b110 #
b10011101 !
1"
0;
1:
18
07
14
02
1/
0-
#560000
b10 #
b10111101 !
b10111001 !
b10101001 !
b0 #
06
04
13
0:
09
0.
1-
1.
#565000
b10100001 !
b100001 !
b1100001 !
b1100011 !
b1100010 !
b1000010 !
b10 #
1:
08
17
05
03
12
01
0.
0-
1+
1,
#570000
b11 #
b111 #
b1010010 !
b1011010 !
b1011000 !
b1011001 !
b1111001 !
18
07
15
14
13
1;
19
1-
0,
1.
#575000
b11111001 !
b10111001 !
b10111011 !
b10111010 !
b10011010 !
08
17
03
02
11
1,
#580000
b101 #
b1 #
b10010010 !
b10010 !
b1010010 !
05
12
01
0:
09
0+
0,
#585000
0"
b1010110 !
b1010111 !
b1110111 !
b11110111 !
0/
18
16
13
11
10
1,
1$
#590000
b0 #
b10110111 !
1"
b10110011 !
b10110010 !
b10010010 !
08
06
03
02
0;
1/
0-
0,
1+
00
0.
1,
0$
#595000
b10010000 !
b10011000 !
b1 #
b10111000 !
1;
07
15
13
0+
#600000
b11 #
b111000 !
b1111000 !
0"
b1111100 !
b1111110 !
b10 #
17
16
12
01
0;
1:
0/
1.
1+
0,
10
1,
1$
#605000
b1111111 !
b1011111 !
1"
b1011011 !
b1011001 !
18
07
06
03
1/
0.
00
0$
#610000
b0 #
b1 #
b1011101 !
b1011111 !
17
16
1;
0:
1-
0,
0+
1.
#615000
b1001111 !
b101 #
b1000111 !
b1000110 !
b111 #
b110 #
b1000100 !
0;
1:
19
08
07
05
04
0-
1+
0.
1.
1,
#620000
b11000100 !
b10000100 !
b10100100 !
0"
b10101100 !
15
13
02
11
0/
0+
10
0,
1$
00
0$
#625000
b100 #
b101 #
b10001100 !
03
1;
0:
0.
#630000
b10001000 !
b1 #
b10001010 !
b10000010 !
b11 #
b10100010 !
1:
09
17
06
05
13
1-
1+
1,
#635000
b10110010 !
b110010 !
b1110010 !
1"
b10 #
b110 #
b1111010 !
b1011010 !
1/
0;
19
15
14
03
12
01
0-
1.
0.
#640000
b11011010 !
b10011010 !
0"
b10 #
0/
09
02
11
0+
0,
#645000
b10011110 !
b10011100 !
b0 #
b10001100 !
b1 #
b10000100 !
b10100100 !
b100100 !
b101 #
1;
0:
19
07
16
05
04
13
01
1,
10
1$
#650000
b100101 !
b1100101 !
1"
b1100111 !
b111 #
b1110111 !
b1111111 !
b11111111 !
b11 #
1/
1:
09
18
17
15
14
12
11
00
1.
1-
1+
0$
#655000
b11111011 !
b11011011 !
b1011011 !
b111 #
19
06
03
01
0,
#660000
b1011010 !
b11010 !
0"
b101 #
b1010 !
b1110 !
b101110 !
b10101110 !
b1 #
0/
0:
09
08
16
04
13
02
11
10
0+
1,
1$
#665000
b0 #
b10101100 !
b10100100 !
b10100101 !
b11100101 !
b11100001 !
18
07
06
05
12
0;
0,
#670000
b10 #
b11110001 !
b11010001 !
b11010011 !
17
14
03
1:
0-
1+
0.
1,
00
0$
#675000
1"
b110 #
b111 #
b11011011 !
b11011010 !
b11011110 !
b101 #
1/
08
16
15
1;
0:
19
1-
0+
1.
0,
#680000
b1011110 !
b11110 !
b1 #
b0 #
b10110 !
b10010 !
0;
09
06
05
02
01
0-
1+
0.
1,
#685000
b10 !
b100010 !
0"
b10 #
b101010 !
0/
1:
15
04
13
0+
0,
#690000
b101000 !
b101001 !
b10101001 !
b10101101 !
b10111101 !
1"
b10110101 !
18
07
16
05
14
11
1/
1.
#695000
b11110101 !
b110 #
b111 #
b11010101 !
b11010001 !
0"
1;
19
06
03
12
0/
1-
1+
0.
1,
10
1$
#700000
b101 #
b1010001 !
b1000001 !
b1 !
b100 #
b100001 !
04
13
02
01
0;
0:
0+
1.
0,
00
0$
#705000
b100011 !
b100010 !
b0 #
b100110 !
1"
b10100110 !
b11100110 !
b1 #
1;
09
08
17
16
12
11
1/
1,
#710000
b11000110 !
b11000100 !
b11000101 !
b0 #
0;
18
07
03
0,
#715000
b100 #
b1000101 !
b101 #
01
1;
19
0-
0.
#720000
b1001101 !
b1001001 !
0"
b1101001 !
b1101011 !
b1101010 !
b11101010 !
08
17
06
15
13
11
0/
1-
1,
1.
10
1$
#725000
b10101010 !
b100 #
b10100010 !
b10100011 !
b100011 !
0;
18
05
02
01
0,
00
0$
#730000
b0 #
1"
b11 !
b1000011 !
b1 #
b1001011 !
b11001011 !
1/
15
03
12
11
1;
09
#735000
b11 #
b11001001 !
b111 #
0"
b11101001 !
b110 #
b11100001 !
b1100001 !
07
05
13
01
0;
1:
19
0/
0-
0.
1+
1,
10
1$
#740000
b1110001 !
b1110000 !
b110000 !
b110010 !
b10010 !
08
17
14
03
02
0+
0,
00
0$
#745000
b10110 !
1"
b111 #
b11110 !
b1110 !
b1001110 !
b1101110 !
1/
1;
16
15
04
13
12
1-
1,
1+
1.
0,
#750000
b11101110 !
b11100110 !
b11000110 !
05
03
11
0.
1,
#755000
b101 #
b1 #
b11000111 !
b0 #
b10000111 !
b111 !
18
02
01
0;
0:
09
0+
1.
0,
#760000
0"
b100111 !
b100 #
b100110 !
b101 #
b1100110 !
b11100110 !
0/
1;
19
08
13
12
11
1,
10
1$
#765000
b11110110 !
1"
b11010110 !
b11010111 !
b1010111 !
18
14
03
01
1/
0,
00
0$
#770000
b1011111 !
b100 #
b11111 !
0"
b11110 !
b10011110 !
0;
08
15
02
11
0/
0-
1+
0.
1,
10
1$
#775000
b10011100 !
b110 #
b10001100 !
b10101100 !
b10100100 !
1"
b10100101 !
b100101 !
1:
18
07
05
04
13
01
1/
1.
0+
00
0,
0$
#780000
b100001 !
b111 #
b1100001 !
b1100011 !
b1000011 !
b1001011 !
0"
b11001011 !
1;
17
06
15
03
12
11
0/
1-
1+
0.
1.
1,
10
1$
#785000
b11 #
b1 #
b0 #
b10001011 !
b10001001 !
b10000001 !
1"
b1 !
07
05
02
01
0;
0:
09
1/
0+
00
0,
0$
#790000
b0 !
b100000 !
b10 #
b100010 !
b101010 !
0"
1:
08
17
15
13
0/
0-
10
0.
1$
00
0$
#795000
b101110 !
b110 #
b111 #
b1101110 !
b1101100 !
1;
19
07
16
12
1-
1,
1+
1.
10
0,
00
1$
0$
#800000
b1111100 !
b1011100 !
b101 #
b1010100 !
b1 #
b1010110 !
0:
09
17
05
14
03
0+
10
1$
#805000
b1010111 !
b1010011 !
b1110011 !
b11 #
b111 #
1:
19
18
06
13
0.
1+
00
1,
10
0,
0$
00
1$
0$
#810000
b11110011 !
b10110011 !
b10111011 !
b10111001 !
b10111000 !
b10111100 !
b10011100 !
b101 #
0:
08
07
16
15
03
02
11
1.
0-
0+
1,
10
0.
0,
00
1$
0$
#815000
1"
b10001100 !
b1100 !
b100 !
b0 !
b111 #
1/
1:
06
05
04
01
1-
1+
#820000
b110 #
b1 !
0"
b10001 !
b11001 !
b11101 !
18
16
15
14
0;
0/
0-
1.
0+
1,
10
0,
00
1$
0$
#825000
b10 #
b1011101 !
b1011111 !
b11011111 !
b11 #
b11001111 !
b11001011 !
17
06
04
12
11
1;
09
1-
0.
1+
10
1.
00
1,
1$
10
0$
1$
#830000
b1 #
b11001010 !
b11000010 !
b101 #
b10000010 !
b10010010 !
b10010110 !
08
16
05
14
02
0:
19
0+
0,
00
0$
#835000
b10110110 !
1"
b10110100 !
b100 #
b110 #
b10 #
b11110100 !
b11100100 !
1/
0;
1:
09
07
04
13
12
0-
1+
0.
1.
1,
#840000
b1100100 !
b1100101 !
b1100001 !
b11 #
b1 #
b100001 !
b110001 !
1;
0:
18
06
14
02
01
0,
0+
0.
1,
#845000
b110011 !
b101 #
b110010 !
b100 #
b100010 !
0;
19
08
17
04
0,
#850000
b10 !
b110 #
b10 #
b10010 !
1:
09
14
03
#855000
b10010010 !
b10010110 !
b10010111 !
b11 #
b10110111 !
b111 #
b10100111 !
1;
19
18
16
04
13
11
1-
1,
1+
1.
0.
#860000
b10101111 !
0"
b101 #
b101111 !
b101011 !
b1011 !
b11011 !
0/
0:
06
15
14
03
01
10
1.
0+
0,
00
1$
0$
#865000
b1011011 !
b1011001 !
b1011000 !
b100 #
b0 #
b10 #
b1111000 !
b1101000 !
0;
1:
09
08
07
04
13
12
0-
1+
10
0.
1,
1$
00
0$
#870000
b1100000 !
b1100100 !
b1100101 !
b0 #
0:
18
16
05
1-
0+
1.
0,
10
1$
#875000
b1 #
b101 #
b1110101 !
b1111101 !
b1111100 !
08
15
14
1;
19
0-
1,
00
0.
10
0$
1$
#880000
b1111110 !
b1011110 !
b1011010 !
b100 #
b1011011 !
0;
18
17
06
03
1-
0,
1+
1.
00
1,
10
0$
1$
#885000
1"
b0 #
1/
09
00
0$
#890000
b11011011 !
b11010011 !
b11010001 !
b11010000 !
0"
08
07
05
11
0/
0-
10
0.
1$
00
0$
#895000
b10010000 !
b10 #
b10000000 !
1:
04
02
0+
0,
#900000
b10000100 !
b10001100 !
b11001100 !
b0 #
b11011100 !
0:
16
15
14
12
1+
1,
#905000
b11111100 !
b1 #
b101 #
b11111110 !
b11111010 !
b11110010 !
b10110010 !
b10100010 !
1;
19
17
06
05
04
13
02
1-
0+
10
1.
1$
#910000
b10100011 !
1"
b111 #
b10000011 !
b11 #
b10000111 !
b11000111 !
b11010111 !
1/
1:
09
18
16
14
03
12
00
0.
1+
0,
1,
0$
#915000
b1010111 !
b10 #
b1010101 !
b1011101 !
b1011100 !
b0 #
b100 #
b1011000 !
b11000 !
b1000 !
0;
0:
19
08
07
06
15
04
02
01
0-
0+
1.
0.
0,
#920000
b101000 !
b101 #
b101010 !
b101011 !
b1101011 !
b1111011 !
1;
18
17
14
13
12
1-
1,
1.
#925000
0"
b1110011 !
b111 #
b11 #
b1110111 !
b1010111 !
b10 #
b1010101 !
b10101 !
b101 !
0/
0;
1:
09
07
16
05
04
03
02
10
0-
0,
0.
1.
00
1$
10
0$
1$
#930000
b10000101 !
1"
b0 #
b1 #
b10000111 !
1/
1;
0:
17
11
00
1-
0.
1.
0$
#935000
0"
0/
10
1$
#940000
b10000110 !
b10001110 !
b10101110 !
b0 #
b10101100 !
1"
0;
08
07
15
13
1/
0-
00
0.
0$
#945000
b10101000 !
b11101000 !
b11111000 !
b11111001 !
b11111011 !
18
17
06
14
12
1-
1+
1.
1,
#950000
b1111011 !
b1011011 !
b1 #
b11011 !
b1011 !
b1010 !
b1000 !
1;
08
07
04
03
02
01
0-
0,
0+
0.
#955000
b101 #
b111 #
b0 !
0"
b110 #
b1000000 !
05
12
0;
1:
19
0/
1+
1,
10
1$
#960000
b11000000 !
b11010000 !
b10 #
1"
b10010000 !
09
14
02
11
1/
00
0+
0,
0$
#965000
b10010100 !
b10110100 !
b10110101 !
b10111101 !
b10101101 !
18
16
15
04
13
1.
#970000
b10101111 !
b0 #
b1 #
b101111 !
0"
b1101111 !
b1101110 !
b1100110 !
1;
0:
08
17
05
12
01
0/
1-
1,
0.
10
1.
00
1$
10
0$
1$
#975000
b1100010 !
b1000010 !
b1000000 !
1"
b1000001 !
18
07
06
03
1/
0-
0,
00
0.
0$
#980000
b1010001 !
b1011001 !
b1011101 !
16
15
14
#985000
b101 #
b111 #
b11011101 !
b10011101 !
b10111101 !
b10111111 !
b10101111 !
b10100111 !
b10100011 !
17
06
05
04
13
02
11
1:
19
1-
1+
1,
#990000
b110 #
0"
b10100010 !
b10 #
b11100010 !
b11000010 !
b11010010 !
0/
08
14
03
12
0;
09
0-
#995000
b0 #
b11010110 !
b11010111 !
b10010111 !
18
16
02
0:
1-
1.
10
1$
