Shift74x194/simulation/qsim/Shift74x194.msim.vcd
$comment
	File created using the following command:
		vcd file Shift74x194.msim.vcd -direction
$end
$date
	Mon Dec 28 12:55:00 2020
$end
$version
	ModelSim Version 10.5b
$end
$timescale
	1ps
$end

$scope module Shift74x194_vlg_vec_tst $end
$var reg 1 ! CP $end
$var reg 1 " CR $end
$var reg 4 # Din [3:0] $end
$var reg 1 $ Dsl $end
$var reg 1 % Dsr $end
$var reg 1 & S0 $end
$var reg 1 ' S1 $end
$var wire 1 ( Q [3] $end
$var wire 1 ) Q [2] $end
$var wire 1 * Q [1] $end
$var wire 1 + Q [0] $end

$scope module i1 $end
$var wire 1 , gnd $end
$var wire 1 - vcc $end
$var wire 1 . unknown $end
$var tri1 1 / devclrn $end
$var tri1 1 0 devpor $end
$var tri1 1 1 devoe $end
$var wire 1 2 CP~combout $end
$var wire 1 3 S0~combout $end
$var wire 1 4 Dsr~combout $end
$var wire 1 5 CR~combout $end
$var wire 1 6 S1~combout $end
$var wire 1 7 Q[0]~0_combout $end
$var wire 1 8 Q[3]~reg0_regout $end
$var wire 1 9 Q[2]~reg0_regout $end
$var wire 1 : Q[1]~reg0_regout $end
$var wire 1 ; Dsl~combout $end
$var wire 1 < Q[0]~reg0_regout $end
$var wire 1 = Din~combout [3] $end
$var wire 1 > Din~combout [2] $end
$var wire 1 ? Din~combout [1] $end
$var wire 1 @ Din~combout [0] $end
$upscope $end
$upscope $end
$enddefinitions $end
#0
$dumpvars
0!
1"
b100 #
1$
0%
1&
0'
0+
0*
0)
0(
0,
1-
x.
1/
10
11
02
13
04
15
06
17
08
09
0:
1;
0<
0@
0?
1>
0=
$end
#5000
1!
0"
b1100 #
b1000 #
0$
0&
12
05
0>
1=
0;
03
07
#10000
b1010 #
b1011 #
1'
0!
b11 #
1&
1@
1?
0=
16
02
13
17
#15000
1$
b10 #
1!
b1010 #
0&
1;
0@
1=
12
03
#20000
1%
b1110 #
b1100 #
0$
0!
1&
14
0?
1>
0;
02
13
#25000
1"
0'
b1101 #
0%
1!
15
06
1@
04
12
#30000
0&
1'
b1100 #
1%
0!
03
16
0@
14
02
#35000
b100 #
b0 #
b10 #
1&
0'
b11 #
0%
1!
1@
1?
0>
0=
13
06
04
12
#40000
1$
b1011 #
b1111 #
b1101 #
b1100 #
1%
0!
1;
0@
0?
1>
1=
14
02
#45000
0$
b1000 #
1!
0;
0>
12
18
1(
#50000
0&
0%
1$
b1100 #
0!
03
04
1;
1>
02
07
#55000
1'
b100 #
b101 #
b1 #
1!
16
1@
0>
0=
12
17
#60000
b11 #
1&
0$
0'
b1011 #
b1010 #
0!
0@
1?
1=
13
0;
06
02
#65000
0&
1'
b10 #
b11 #
1!
03
16
1@
0=
12
1:
1*
#70000
0"
b111 #
1$
1&
0'
b1111 #
b1110 #
0!
05
0@
1>
1=
1;
13
06
02
0:
08
0*
0(
#75000
b1100 #
b1000 #
0$
0&
1'
b0 #
b1 #
1!
1@
0?
0>
0=
0;
03
16
12
#80000
1%
b11 #
0!
14
1?
02
#85000
1"
1&
b1011 #
b1001 #
1!
15
13
0?
1=
12
#90000
b1101 #
1$
b1100 #
0%
b100 #
0!
0@
1>
0=
1;
04
02
#95000
0'
b110 #
b10 #
0$
b11 #
1%
b1011 #
1!
06
1@
1?
0>
1=
0;
14
12
18
1(
#100000
0"
0&
1$
0!
05
03
1;
02
07
08
0(
#105000
1'
b1010 #
1"
0$
1!
16
0@
15
0;
12
17
#110000
b1000 #
b1100 #
0%
b100 #
0'
b101 #
0"
0!
1@
0?
1>
0=
04
06
05
02
07
#115000
b1 #
1!
0>
12
#120000
1$
b1001 #
b1101 #
0!
1;
1>
1=
02
#125000
b101 #
b1 #
1!
0>
0=
12
#130000
1"
0!
15
02
#135000
1&
1%
b0 #
b100 #
0"
1!
13
14
0@
1>
05
12
17
#140000
b110 #
0$
0&
b111 #
1"
0!
1@
1?
0;
03
15
02
07
#145000
1'
0%
b11 #
1$
b10 #
0"
1!
16
04
0@
0>
1;
05
12
17
#150000
b1010 #
1&
b1110 #
0$
1"
0!
1>
1=
13
0;
15
02
#155000
0'
1%
b110 #
b10 #
1!
06
14
0>
0=
12
18
1(
#160000
b11 #
1'
0%
0!
1@
16
04
02
#165000
0&
1$
b10 #
0'
1%
1!
03
1;
0@
06
14
12
07
19
1)
#170000
0"
b1010 #
b1110 #
1&
0$
b1111 #
1'
0%
0!
05
1@
1>
1=
13
0;
16
04
02
17
08
09
0(
0)
#175000
b111 #
b11 #
1$
b10 #
0'
1%
1!
0@
0>
0=
1;
06
14
12
#180000
1"
0&
b11 #
0!
15
03
1@
02
07
#185000
b111 #
1'
0%
0"
b110 #
1!
0@
1>
16
04
05
12
17
#190000
b1110 #
0$
1%
b1111 #
0!
1@
1=
0;
14
02
#195000
1&
b111 #
b110 #
1!
13
0@
0=
12
#200000
1$
0%
0&
0!
1;
04
03
02
#205000
0'
b1110 #
1&
1!
06
1=
13
12
#210000
b1111 #
0$
1%
1'
b111 #
0!
1@
0=
0;
14
16
02
#215000
b101 #
0%
0'
1!
0?
04
06
12
#220000
1"
0&
1$
b111 #
1%
0!
15
03
1;
1?
14
02
07
#225000
b110 #
1'
1&
b100 #
1!
0@
0?
16
13
12
17
#230000
0"
0$
0%
b101 #
0'
0!
05
0;
04
1@
06
02
#235000
0&
1"
1$
1'
1!
03
15
1;
16
12
1<
19
1+
1)
#240000
b1 #
b1001 #
b1011 #
1&
0"
0'
0!
1?
0>
1=
13
05
06
02
0<
09
0+
0)
#245000
1%
b1010 #
0$
b1110 #
b110 #
0&
1"
1'
1!
14
0@
1>
0=
0;
03
15
16
12
18
1<
1:
1(
1+
1*
#250000
1$
b10 #
1&
0"
0!
1;
0>
13
05
02
0<
0:
08
0+
0*
0(
#255000
b11 #
0$
b111 #
1!
1@
1>
0;
12
#260000
b101 #
0%
0&
1"
1$
0!
0?
04
03
15
1;
02
#265000
b1101 #
b1100 #
0$
1!
0@
1=
0;
12
1<
1+
#270000
1$
0!
1;
02
#275000
b1000 #
b1010 #
b10 #
1!
1?
0>
0=
12
1:
1*
#280000
0'
0"
b11 #
0$
0!
06
05
1@
0;
02
07
0<
0:
0+
0*
#285000
1%
1'
1"
1!
14
16
15
12
17
#290000
b111 #
b101 #
b1101 #
b1100 #
0%
0'
0"
0!
0@
0?
1>
1=
04
06
05
02
07
#295000
1&
1$
b1000 #
b1010 #
b1011 #
1%
1'
1!
13
1;
1@
1?
0>
14
16
12
17
#300000
1"
0&
0$
b1010 #
0'
0!
15
03
0;
0@
06
02
07
#305000
b10 #
b110 #
0%
0"
1&
1!
1>
0=
04
05
13
12
17
#310000
b100 #
1'
b1100 #
1"
0!
0?
1=
16
15
02
#315000
1$
b1101 #
1%
0&
b101 #
0"
1!
1;
1@
0=
14
03
05
12
#320000
b1 #
0'
0%
1&
b1001 #
1"
0!
0>
1=
06
04
13
15
02
#325000
b1011 #
b1111 #
1!
1?
1>
12
#330000
0$
1'
0&
b111 #
b101 #
0!
0;
16
03
0?
0=
02
#335000
b100 #
1%
0'
b110 #
1!
0@
1?
14
06
12
07
18
1(
#340000
b10 #
1$
1&
b1010 #
1'
0!
0>
1=
1;
13
16
02
17
#345000
b1110 #
0$
0&
b110 #
0'
1!
1>
0=
0;
03
06
12
07
19
1)
#350000
b111 #
0%
b101 #
b1 #
1$
0!
1@
0?
0>
04
1;
02
#355000
0"
1&
b1001 #
1'
b1000 #
1%
b1010 #
1!
05
13
0@
1?
1=
16
14
12
17
08
09
0(
0)
#360000
0$
1"
0&
b10 #
b11 #
b1 #
0!
0;
15
03
1@
0?
0=
02
#365000
b101 #
0'
1$
0"
1&
b100 #
1!
0@
1>
06
1;
05
13
12
#370000
b1100 #
b1110 #
0$
1"
0&
b1111 #
0!
1@
1?
1=
0;
15
03
02
07
#375000
1'
b111 #
1$
0"
b110 #
1!
16
0@
0=
1;
05
12
17
#380000
b100 #
0!
0?
02
#385000
0%
b1100 #
0$
1"
1!
04
1=
0;
15
12
1<
1+
#390000
b1000 #
0'
1%
0!
0>
06
14
02
07
#395000
b1001 #
b1011 #
1$
0"
1'
1!
1@
1?
1;
05
16
12
17
0<
0+
#400000
0%
b1001 #
0$
0!
04
0?
0;
02
#405000
1&
b1 #
b101 #
b100 #
1"
1$
1!
13
0@
1>
0=
15
1;
12
#410000
0'
1%
b110 #
0&
b10 #
0"
0!
06
14
1?
0>
03
05
02
07
#415000
b1010 #
b1011 #
0$
0%
b1111 #
1"
1!
1@
1>
1=
0;
04
15
12
#420000
1'
1&
b1110 #
1$
1%
0"
0!
16
13
0@
1;
14
05
02
17
#425000
b1100 #
0$
0%
1!
0?
0;
04
12
#430000
b100 #
0&
b101 #
1"
1%
0!
1@
0=
03
15
14
02
#435000
b1 #
b11 #
1$
b1011 #
b1010 #
0%
1!
0@
1?
0>
1=
1;
04
12
#440000
0"
b1000 #
0$
b0 #
b1 #
1%
0!
05
1@
0?
0=
0;
14
02
#445000
0'
1&
b11 #
b10 #
0%
1!
06
13
0@
1?
04
12
#450000
b110 #
1"
1$
1'
b100 #
b101 #
0!
1@
0?
1>
15
1;
16
02
#455000
b1101 #
0'
1!
1=
06
12
#460000
0&
b1001 #
b1011 #
1'
0!
03
1?
0>
16
02
#465000
0"
0$
b1010 #
b10 #
b110 #
b100 #
0'
1!
05
0;
0@
0?
1>
0=
06
12
07
#470000
1&
1"
b101 #
b111 #
0!
13
15
1@
1?
02
17
#475000
b11 #
b10 #
1!
0@
0>
12
#480000
1%
1$
1'
b0 #
b100 #
b101 #
0!
14
1;
16
1@
0?
1>
02
#485000
b1101 #
0"
0%
0$
0'
b1100 #
1!
0@
1=
05
04
0;
06
12
#490000
0&
b1000 #
b0 #
1%
b1 #
0!
03
1@
0>
0=
14
02
07
#495000
1"
1&
b101 #
b100 #
1!
15
13
0@
1>
12
17
#500000
b110 #
1$
1'
b1110 #
b1111 #
0!
1@
1?
1=
1;
16
02
#505000
0&
b1011 #
0$
b11 #
1!
03
0>
0=
0;
12
1<
1:
19
18
1+
1*
1)
1(
#510000
0%
b1 #
1&
1$
0!
04
0?
13
1;
02
#515000
b101 #
1%
b111 #
0&
1!
1?
1>
14
03
12
08
0:
09
0(
0*
0)
#520000
0"
0!
05
02
0<
0+
#525000
b110 #
b1110 #
b1010 #
1"
1!
0@
0>
1=
15
12
1<
1+
#530000
0'
0$
b1011 #
b11 #
0"
0!
06
0;
1@
0=
05
02
07
0<
0+
#535000
b1 #
1&
b101 #
b1101 #
1"
1!
0?
1>
1=
13
15
12
17
#540000
0%
1$
b1100 #
b1000 #
b0 #
0"
0!
04
1;
0@
0>
0=
05
02
#545000
1%
0$
b100 #
1!
14
0;
1>
12
#550000
1'
b110 #
0%
b10 #
0!
16
1?
0>
04
02
#555000
b11 #
1"
b111 #
1!
1@
1>
15
12
1:
1*
#560000
0&
0'
b101 #
1%
0"
0!
03
06
0?
14
05
02
07
0:
0*
#565000
b1101 #
1$
b1001 #
1'
b1011 #
0%
1!
1?
0>
1=
1;
16
04
12
17
#570000
b1010 #
1&
b1110 #
b1100 #
0!
0@
0?
1>
13
02
#575000
1"
b100 #
0$
b101 #
0&
b111 #
1!
15
1@
1?
0=
0;
03
12
19
18
1)
1(
#580000
0'
1$
1&
b101 #
0!
06
1;
13
0?
02
#585000
b1101 #
1'
0$
0&
1!
1=
16
0;
03
12
1<
08
1+
0(
#590000
1%
b101 #
1$
0!
14
0=
1;
02
#595000
0'
1!
06
12
07
0<
1:
09
18
0+
1*
0)
1(
#600000
b1 #
0$
1'
0!
0>
0;
16
02
17
#605000
0"
b0 #
0%
b1000 #
b1100 #
1$
0'
1!
05
0@
1>
1=
04
1;
06
12
07
08
0:
0(
0*
#610000
1%
b1000 #
0$
0!
14
0>
0;
02
#615000
b1010 #
1&
b10 #
1'
0%
1$
1!
1?
0=
13
16
04
1;
12
17
#620000
b0 #
1%
0!
0?
14
02
#625000
1"
0&
0'
0$
b10 #
1!
15
03
06
0;
1?
12
07
18
1(
#630000
b11 #
b111 #
0%
1&
1'
1$
b101 #
0!
1@
0?
1>
04
13
16
1;
02
17
#635000
0"
1%
0&
0'
0$
b111 #
1!
05
14
03
06
0;
1?
12
07
08
0(
#640000
b1111 #
b1011 #
1"
0%
1$
b1001 #
0!
0?
0>
1=
15
04
1;
02
#645000
b1000 #
1&
b0 #
b100 #
b110 #
1!
0@
1?
1>
0=
13
12
17
#650000
1'
1%
0$
0&
b1110 #
0!
16
14
0;
03
1=
02
#655000
0"
0%
1&
b110 #
1!
05
04
13
0=
12
#660000
b10 #
1"
1%
0&
0!
0>
15
14
03
02
#665000
b11 #
1$
b111 #
1!
1@
1>
1;
12
#670000
b101 #
b1101 #
0"
1&
0!
0?
1=
05
13
02
#675000
0%
b1100 #
b1000 #
b1010 #
1"
0&
1!
04
0@
1?
0>
15
03
12
18
1<
19
1(
1+
1)
#680000
0'
0$
b10 #
1%
0"
1&
0!
06
0;
0=
14
05
13
02
08
0<
09
0(
0+
0)
#685000
b11 #
b111 #
1'
0%
1!
1@
1>
16
04
12
#690000
b1111 #
1"
0&
b1011 #
0'
1%
0!
0>
1=
15
03
06
14
02
07
#695000
b11 #
1&
1!
0=
13
12
17
#700000
b1 #
b0 #
0"
1'
0%
0&
0!
0@
0?
05
16
04
03
02
#705000
b1000 #
1"
0'
1&
1!
1=
15
06
13
12
#710000
b1100 #
b1110 #
1%
0"
1'
0!
1?
1>
14
05
16
02
#715000
b1111 #
0&
b1011 #
b1001 #
0%
1!
1@
0?
0>
03
04
12
#720000
1$
b1 #
b0 #
1&
0!
1;
0@
0=
13
02
#725000
1"
b10 #
1%
0$
1!
15
1?
14
0;
12
#730000
0'
b110 #
b1110 #
b1111 #
b1101 #
1$
0!
06
1@
0?
1>
1=
1;
02
#735000
0&
b1100 #
0$
1!
03
0@
0;
12
07
18
1(
#740000
0%
b1000 #
b0 #
1&
b1 #
0!
04
1@
0>
0=
13
02
17
#745000
1'
b11 #
1$
1%
b111 #
1!
16
1?
1>
1;
14
12
08
1<
0(
1+
#750000
b110 #
0'
0%
0!
0@
06
04
02
#755000
0"
b1110 #
0$
b1010 #
b1011 #
1'
1!
05
1@
0>
1=
0;
16
12
0<
0+
#760000
0&
b1001 #
1"
1$
b1101 #
0'
0!
03
0?
1>
15
1;
06
02
07
#765000
b101 #
b100 #
b110 #
0"
1!
0@
1?
0=
05
12
#770000
1%
1&
1'
b111 #
b101 #
0!
14
13
16
1@
0?
02
17
#775000
0$
b1 #
b1001 #
1"
0&
b1000 #
1!
0;
0@
0>
1=
15
03
12
1<
19
1+
1)
#780000
0'
b1010 #
1$
b10 #
0"
1&
0!
06
1?
0=
1;
05
13
02
0<
09
0+
0)
#785000
1'
b0 #
0$
1"
1!
16
0?
0;
15
12
1:
1*
#790000
0%
b100 #
b1100 #
0'
b1110 #
1$
0!
04
1?
1>
1=
06
1;
02
#795000
b1010 #
b10 #
1'
b0 #
1!
0?
0>
0=
16
12
19
18
1)
1(
#800000
1%
b1000 #
0!
14
1=
02
#805000
0"
b1010 #
0%
1!
05
1?
04
12
08
0:
09
0(
0*
0)
#810000
b1110 #
b110 #
0!
1>
0=
02
#815000
b111 #
0&
1!
1@
03
12
#820000
0$
0'
1"
1%
b1111 #
b1110 #
0!
0;
06
15
14
0@
1=
02
07
#825000
b1100 #
1&
1$
0"
0%
1!
0?
13
1;
05
04
12
17
#830000
1'
b100 #
0&
1"
0!
16
0=
03
15
02
#835000
b0 #
b1 #
1%
0'
0"
1!
1@
0>
14
06
05
12
07
#840000
b11 #
0$
b1011 #
1&
0!
1?
1=
0;
13
02
17
#845000
b1111 #
b1110 #
0%
1"
b110 #
1!
0@
1>
0=
04
15
12
#850000
1'
0&
b10 #
1%
b1010 #
0!
16
03
0>
1=
14
02
#855000
1$
b1011 #
0"
0'
1&
1!
1;
1@
05
06
13
12
#860000
b1001 #
b1101 #
0%
b1100 #
1"
0&
0!
0@
0?
1>
04
15
03
02
07
#865000
0$
1'
b1101 #
0"
1!
0;
16
1@
05
12
17
#870000
1&
1$
0'
b1100 #
1"
0!
13
1;
06
0@
15
02
#875000
b100 #
b110 #
b10 #
0&
0$
1'
b11 #
1!
1@
1?
0>
0=
03
0;
16
12
19
18
1)
1(
#880000
1&
1$
0'
0!
13
1;
06
02
#885000
1%
b10 #
1!
14
0@
12
1:
1*
#890000
b1010 #
b1000 #
0&
1'
b1001 #
0!
1@
0?
1=
03
16
02
#895000
0"
b1101 #
0$
0%
b101 #
b111 #
0'
b110 #
1!
05
0@
1?
1>
0=
0;
04
06
12
07
08
0:
09
0(
0*
0)
#900000
1%
1'
b111 #
0!
14
16
1@
02
17
#905000
1"
b11 #
1$
b10 #
1!
15
0@
0>
1;
12
#910000
1&
0"
0$
0!
13
05
0;
02
#915000
b0 #
b100 #
1!
0?
1>
12
#920000
0%
b0 #
0!
04
0>
02
#925000
b1000 #
b1001 #
0&
1"
1$
b1011 #
1%
b1111 #
1!
1@
1?
1>
1=
03
15
1;
14
12
#930000
b111 #
b110 #
1&
0"
0$
b100 #
0%
b0 #
0!
0@
0?
0>
0=
13
05
0;
04
02
#935000
b1 #
0&
1$
1%
b101 #
1!
1@
1>
03
1;
14
12
#940000
0'
b1101 #
1"
1&
b1001 #
0!
06
0>
1=
15
13
02
#945000
0$
0"
b1101 #
1!
0;
05
1>
12
#950000
b1100 #
0%
b100 #
0&
1$
1"
0!
0@
0=
04
03
1;
15
02
07
#955000
b0 #
b1 #
0"
1!
1@
0>
05
12
#960000
b11 #
1%
0$
b10 #
0!
0@
1?
14
0;
02
#965000
1'
b1010 #
1&
1"
b1000 #
0%
1$
1!
16
0?
1=
13
15
04
1;
12
17
#970000
b1100 #
0'
0&
0"
0!
1>
06
03
05
02
07
#975000
b1110 #
1%
b1010 #
1"
1!
1?
0>
14
15
12
#980000
b1011 #
0$
1'
1&
0!
1@
0;
16
13
02
17
#985000
b11 #
0%
b10 #
1!
0@
0=
04
12
18
1<
1:
1(
1+
1*
#990000
b0 #
b100 #
b1100 #
1%
b1101 #
0!
1@
0?
1>
1=
14
02
#995000
1$
b1100 #
1!
1;
0@
12
0:
19
0*
1)
