Dflip_flop/simulation/qsim/Dflip_flop.msim.vcd
$comment
	File created using the following command:
		vcd file Dflip_flop.msim.vcd -direction
$end
$date
	Tue Dec 08 15:53:33 2020
$end
$version
	ModelSim Version 10.5b
$end
$timescale
	1ps
$end

$scope module Dflip_flop_vlg_vec_tst $end
$var reg 1 ! CP $end
$var reg 1 " D $end
$var wire 1 # Q $end
$var wire 1 $ Qnot $end

$scope module i1 $end
$var wire 1 % gnd $end
$var wire 1 & vcc $end
$var wire 1 ' unknown $end
$var tri1 1 ( devclrn $end
$var tri1 1 ) devpor $end
$var tri1 1 * devoe $end
$var wire 1 + CP~combout $end
$var wire 1 , D~combout $end
$var wire 1 - Q~reg0_regout $end
$var wire 1 . Qnot~reg0_regout $end
$upscope $end
$upscope $end
$enddefinitions $end
#0
$dumpvars
0!
0"
0#
0$
0%
1&
x'
1(
1)
1*
0+
0,
0-
0.
$end
#50000
1!
1+
1.
1$
#100000
0!
0+
#105600
1"
1,
#150000
1!
1+
0.
1-
0$
1#
#165000
0"
0,
#200000
0!
0+
#250000
1!
1+
1.
0-
1$
0#
#270600
1"
1,
#300000
0!
0+
#330000
0"
0,
#350000
1!
1+
#400000
0!
0+
#435600
1"
1,
#450000
1!
1+
0.
1-
0$
1#
#495000
0"
0,
#500000
0!
0+
#550000
1!
1+
1.
0-
1$
0#
#600000
0!
0+
#600600
1"
1,
#650000
1!
1+
0.
1-
0$
1#
#660000
0"
0,
#700000
0!
0+
#750000
1!
1+
1.
0-
1$
0#
#765600
1"
1,
#800000
0!
0+
#825000
0"
0,
#850000
1!
1+
#900000
0!
0+
#930600
1"
1,
#950000
1!
1+
0.
1-
0$
1#
#990000
0"
0,
