double_direction_shift_register/simulation/qsim/double_direction_shift_register.msim.vcd
$comment
	File created using the following command:
		vcd file double_direction_shift_register.msim.vcd -direction
$end
$date
	Wed Dec 09 16:17:32 2020
$end
$version
	ModelSim Version 10.5b
$end
$timescale
	1ps
$end

$scope module double_direction_shift_register_vlg_vec_tst $end
$var reg 1 ! CP $end
$var reg 4 " D [3:0] $end
$var reg 1 # DSL $end
$var reg 1 $ DSR $end
$var reg 1 % S0 $end
$var reg 1 & S1 $end
$var wire 1 ' Q [3] $end
$var wire 1 ( Q [2] $end
$var wire 1 ) Q [1] $end
$var wire 1 * Q [0] $end

$scope module i1 $end
$var wire 1 + gnd $end
$var wire 1 , vcc $end
$var wire 1 - unknown $end
$var tri1 1 . devclrn $end
$var tri1 1 / devpor $end
$var tri1 1 0 devoe $end
$var wire 1 1 CP~combout $end
$var wire 1 2 S0~combout $end
$var wire 1 3 DSL~combout $end
$var wire 1 4 S1~combout $end
$var wire 1 5 Q[0]~0_combout $end
$var wire 1 6 Q[3]~reg0_regout $end
$var wire 1 7 Q[2]~reg0_regout $end
$var wire 1 8 Q[1]~reg0_regout $end
$var wire 1 9 Q[0]~reg0_regout $end
$var wire 1 : D~combout [3] $end
$var wire 1 ; D~combout [2] $end
$var wire 1 < D~combout [1] $end
$var wire 1 = D~combout [0] $end
$upscope $end
$upscope $end
$enddefinitions $end
#0
$dumpvars
0!
b0 "
0#
0$
1%
1&
0*
0)
0(
0'
0+
1,
x-
1.
1/
10
01
12
03
14
15
06
07
08
09
0=
0<
0;
0:
$end
#15000
b1000 "
1:
#30000
b1100 "
b100 "
1;
0:
#37500
1$
#45000
b110 "
b1110 "
1<
1:
#50000
1!
11
18
17
16
1)
1(
1'
#60000
b1111 "
b1011 "
b11 "
1=
0;
0:
#75000
b1011 "
1:
#90000
b1001 "
b1101 "
b101 "
0<
1;
0:
#100000
1#
0!
13
01
#105000
b1101 "
1:
#120000
b1100 "
b1000 "
b0 "
0=
0;
0:
#135000
b10 "
b1010 "
1<
1:
#150000
0$
1!
b1110 "
b110 "
11
1;
0:
07
0(
#165000
b1110 "
1:
#180000
b1111 "
b1101 "
b1001 "
b1 "
1=
0<
0;
0:
#187500
1$
#195000
b1001 "
1:
#200000
0#
0!
03
01
#210000
b1101 "
b101 "
1;
0:
#225000
b111 "
b1111 "
1<
1:
#240000
b1110 "
b1010 "
b10 "
0=
0;
0:
#250000
1!
11
06
0'
#255000
b1010 "
1:
#260000
0&
04
#270000
b1000 "
b1100 "
b100 "
0<
1;
0:
#285000
b1100 "
1:
#300000
0$
1#
b1101 "
0!
b1001 "
b1 "
13
1=
0;
0:
01
#315000
b11 "
b1011 "
1<
1:
#330000
b1111 "
b111 "
1;
0:
#337500
1$
#345000
b1111 "
1:
#350000
1!
11
19
08
17
1*
0)
1(
#360000
b1110 "
b1100 "
b1000 "
b0 "
0=
0<
0;
0:
#375000
b1000 "
1:
#390000
b1100 "
b100 "
1;
0:
#400000
0#
0!
03
01
#405000
b110 "
b1110 "
1<
1:
#420000
b1111 "
b1011 "
b11 "
1=
0;
0:
#435000
b1011 "
1:
#450000
0$
1!
b1001 "
b1101 "
b101 "
11
0<
1;
0:
09
18
07
16
0*
1)
0(
1'
#465000
b1101 "
1:
#480000
0%
1&
b1100 "
b1000 "
b0 "
02
14
0=
0;
0:
#487500
1$
#495000
b10 "
b1010 "
1<
1:
#500000
1#
0!
13
01
#510000
b1110 "
b110 "
1;
0:
#525000
b1110 "
1:
#540000
b1111 "
b1101 "
b1001 "
b1 "
1=
0<
0;
0:
#550000
1!
11
19
08
17
1*
0)
1(
#555000
b1001 "
1:
#570000
b1101 "
b101 "
1;
0:
#585000
b111 "
b1111 "
1<
1:
#600000
0$
0#
b1110 "
0!
b1010 "
b10 "
03
0=
0;
0:
01
#615000
b1010 "
1:
#630000
b1000 "
b1100 "
b100 "
0<
1;
0:
#637500
1$
#645000
b1100 "
1:
#650000
1!
11
09
18
06
0*
1)
0'
#660000
b1101 "
b1001 "
b1 "
1=
0;
0:
#675000
b11 "
b1011 "
1<
1:
#690000
b1111 "
b111 "
1;
0:
#700000
1#
0!
13
01
#705000
b1111 "
1:
#720000
0&
b1110 "
b1100 "
b1000 "
b0 "
04
0=
0<
0;
0:
05
#735000
b1000 "
1:
#750000
0$
1!
b1100 "
b100 "
11
1;
0:
#765000
b110 "
b1110 "
1<
1:
#780000
b1111 "
b1011 "
b11 "
1=
0;
0:
#787500
1$
#795000
b1011 "
1:
#800000
0#
0!
03
01
#810000
b1001 "
b1101 "
b101 "
0<
1;
0:
#825000
b1101 "
1:
#840000
b1100 "
b1000 "
b0 "
0=
0;
0:
#850000
1!
11
#855000
b10 "
b1010 "
1<
1:
#870000
b1110 "
b110 "
1;
0:
#885000
b1110 "
1:
#900000
0$
1#
b1111 "
0!
b1101 "
b1001 "
b1 "
13
1=
0<
0;
0:
01
#915000
b1001 "
1:
#930000
b1101 "
b101 "
1;
0:
#937500
1$
#945000
b111 "
b1111 "
1<
1:
#950000
1!
11
#960000
b1110 "
b1010 "
b10 "
0=
0;
0:
#975000
b1010 "
1:
#990000
b1000 "
b1100 "
b100 "
0<
1;
0:
