numerical_comparator/simulation/qsim/numerical_comparator.msim.vcd
$comment
	File created using the following command:
		vcd file numerical_comparator.msim.vcd -direction
$end
$date
	Sat Dec 26 20:10:56 2020
$end
$version
	ModelSim Version 10.5b
$end
$timescale
	1ps
$end

$scope module numerical_comparator_vlg_vec_tst $end
$var reg 4 ! A [3:0] $end
$var reg 4 " B [3:0] $end
$var wire 1 # Fequ $end
$var wire 1 $ Fmax $end
$var wire 1 % Fmin $end

$scope module i1 $end
$var wire 1 & gnd $end
$var wire 1 ' vcc $end
$var wire 1 ( unknown $end
$var tri1 1 ) devclrn $end
$var tri1 1 * devpor $end
$var tri1 1 + devoe $end
$var wire 1 , Fmax~2_combout $end
$var wire 1 - Fmax~1_combout $end
$var wire 1 . Fmax~0_combout $end
$var wire 1 / Fmax~3_combout $end
$var wire 1 0 Fmin~0_combout $end
$var wire 1 1 Fmin~1_combout $end
$var wire 1 2 Fmin~2_combout $end
$var wire 1 3 Fequ1~0_combout $end
$var wire 1 4 Fequ~0_combout $end
$var wire 1 5 A~combout [3] $end
$var wire 1 6 A~combout [2] $end
$var wire 1 7 A~combout [1] $end
$var wire 1 8 A~combout [0] $end
$var wire 1 9 B~combout [3] $end
$var wire 1 : B~combout [2] $end
$var wire 1 ; B~combout [1] $end
$var wire 1 < B~combout [0] $end
$upscope $end
$upscope $end
$enddefinitions $end
#0
$dumpvars
b1010 !
b1010 "
1#
0$
0%
0&
1'
x(
1)
1*
1+
1,
0-
0.
0/
00
01
02
03
04
08
17
06
15
0<
1;
0:
19
$end
#80000
b1000 "
0;
13
1-
14
1/
1$
0#
#150000
b10 !
b110 !
b0 "
b100 "
1:
09
16
05
#330000
b101 "
b10 !
b1 "
06
1<
0:
#510000
b110 !
b101 "
1:
16
#680000
b111 !
b1101 "
b1100 "
b1000 "
0<
0:
19
18
10
0,
12
0/
1%
0$
#840000
b1010 "
b11 !
b10 "
b11 "
06
1<
1;
09
00
1,
0-
03
02
04
0%
1#
#990000
b1 "
b0 "
0<
0;
14
1-
13
1/
0#
1$
